%YAML 1.1
%TAG !u! tag:unity3d.com,2011:
--- !u!114 &11400000
MonoBehaviour:
  m_ObjectHideFlags: 0
  m_CorrespondingSourceObject: {fileID: 0}
  m_PrefabInstance: {fileID: 0}
  m_PrefabAsset: {fileID: 0}
  m_GameObject: {fileID: 0}
  m_Enabled: 1
  m_EditorHideFlags: 0
  m_Script: {fileID: 11500000, guid: 0329b572a8b302b46804687922364dd1, type: 3}
  m_Name: SimpleDomain
  m_EditorClassIdentifier: 
  m_EnumDefinitions: []
  m_AliasDefinitions: []
  m_TraitDefinitions:
  - m_Name: Condition
    m_Dynamic: 1
    m_Fields:
    - m_Name: Value
      m_Type: System.Int64
