%YAML 1.1
%TAG !u! tag:unity3d.com,2011:
--- !u!114 &11400000
MonoBehaviour:
  m_ObjectHideFlags: 0
  m_CorrespondingSourceObject: {fileID: 0}
  m_PrefabInstance: {fileID: 0}
  m_PrefabAsset: {fileID: 0}
  m_GameObject: {fileID: 0}
  m_Enabled: 1
  m_EditorHideFlags: 0
  m_Script: {fileID: 11500000, guid: f082175214b81604aa07de81ba3d3a9b, type: 3}
  m_Name: SimplePlan
  m_EditorClassIdentifier: 
  m_DomainDefinition: {fileID: 11400000, guid: 24d53b7757b9b0746bb38c2deee5003b, type: 2}
  m_ActionDefinitions:
  - m_Name: TestAction
    m_Parameters:
    - m_Name: Agent
      m_IncludeTraitTypes:
      - Condition
      m_ExcludeTraitTypes: []
    m_Preconditions:
    - m_OperandA:
      - Agent
      - Condition.Value
      m_Operator: ==
      m_OperandB:
      - 0
    m_CreatedObjects: []
    m_RemovedObjects: []
    m_Effects:
    - m_OperandA:
      - Agent
      - Condition.Value
      m_Operator: =
      m_OperandB:
      - 1
    m_Reward: 0
    m_OperationalActionType: TestAction
  m_StateTerminationDefinitions: []
